{
  "interactionModel": {
    "languageModel": {
      "invocationName": "barceloneta surf",
      "types": [

      ],
      "intents": [
        {
          "name": "AMAZON.CancelIntent",
          "samples": [

          ]
        },
        {
          "name": "AMAZON.HelpIntent",
          "samples": [

          ]
        },
        {
          "name": "AMAZON.StopIntent",
          "samples": [

          ]
        },
        {
          "name": "WavesIntent",
          "slots": [
            {
              "name": "Time",
              "type": "AMAZON.TIME"
            },
            {
              "name": "Date",
              "type": "AMAZON.DATE"
            }
          ],
          "samples": [
            "hay olas",
            "hay olas {Date} a las {Time}",
            "habrá olas {Date} a las {Time}",
            "habrá olas a las {Time} {Date}",
            "hay surf",
            "hay surf {Date} a las {Time}",
            "habrá surf {Date} a las {Time}",
            "si hay surf",
            "si hay surf {Date} a las {Time}",
            "si habrá surf {Date} a las {Time}",
            "condiciones",
            "condiciones {Date} a las {Time}",
            "condiciones de las olas",
            "condiciones de las olas {Date} a las {Time}",
            "dime si hay olas",
            "dime si hay olas {Date} a las {Time}",
            "qué tal están las olas",
            "qué tal están las olas {Date} a las {Time}",
            "puedo surfear",
            "puedo surfear {Date} a las {Time}",
            "podré surfear {Date} a las {Time}",
            "si puedo surfear",
            "si puedo surfear {Date} a las {Time}",
            "si podré surfear {Date} a las {Time}",
            "se puede surfear",
            "se puede surfear {Date} a las {Time}",
            "se podrá surfear {Date} a las {Time}",
            "si se puede surfear",
            "si se puede surfear {Date} a las {Time}",
            "si se podrá surfear {Date} a las {Time}"
          ]
        }
      ]
    }
  }
}
